%YAML 1.1
%TAG !u! tag:unity3d.com,2011:
--- !u!162 &1
EditorUserSettings:
  m_ObjectHideFlags: 0
  serializedVersion: 4
  m_ConfigSettings:
    RecentlyUsedSceneGuid-0:
      value: 5250070706050a0a595c097440725c444016197278292434742f4967e6b0373a
      flags: 0
    RecentlyUsedSceneGuid-1:
      value: 5550570051030c030b0a0f2144270b4441161c72792b7763757d4c63e4b73560
      flags: 0
    RecentlyUsedSceneGuid-2:
      value: 065457545c50080c5f5c5b2340775b4445154c2e7b717735297e4e67e7e26539
      flags: 0
    RecentlyUsedSceneGuid-3:
      value: 54065250060c5d0c585f5f2141730844474f497c75717f647f2f1832e7b1663e
      flags: 0
    RecentlyUsedSceneGuid-4:
      value: 00080d5054055b5f5f5b0d7a4927594444151e7f7f2c25637d2c4832bae3636c
      flags: 0
    RecentlyUsedSceneGuid-5:
      value: 5206020355065c0f585a5e23457b0f444716487a2d7172652e7f1b64b4b0306a
      flags: 0
    RecentlyUsedSceneGuid-6:
      value: 5b570d0300050c0a080f557413200b44144e4f7f2871276829791f63e3b4626d
      flags: 0
    RecentlyUsedSceneGuid-7:
      value: 5253045152570b095a0a5d711326094415164a7e7d7e2365282f1863b1b2606a
      flags: 0
    RecentlyUsedSceneGuid-8:
      value: 5b500d0051565c0e0b0c5e7446735d44174f4c297a2b7432787e4561b5b8366d
      flags: 0
    RecentlyUsedSceneGuid-9:
      value: 0752045004535f5f095e5b204325084446154c797b7872317b7c4432e3b5603e
      flags: 0
    vcSharedLogLevel:
      value: 0d5e400f0650
      flags: 0
  m_VCAutomaticAdd: 1
  m_VCDebugCom: 0
  m_VCDebugCmd: 0
  m_VCDebugOut: 0
  m_SemanticMergeMode: 2
  m_DesiredImportWorkerCount: 3
  m_StandbyImportWorkerCount: 2
  m_IdleImportWorkerShutdownDelay: 60000
  m_VCShowFailedCheckout: 1
  m_VCOverwriteFailedCheckoutAssets: 1
  m_VCProjectOverlayIcons: 1
  m_VCHierarchyOverlayIcons: 1
  m_VCOtherOverlayIcons: 1
  m_VCAllowAsyncUpdate: 1
  m_ArtifactGarbageCollection: 1
