%YAML 1.1
%TAG !u! tag:unity3d.com,2011:
--- !u!74 &7400000
AnimationClip:
  m_ObjectHideFlags: 0
  m_CorrespondingSourceObject: {fileID: 0}
  m_PrefabInstance: {fileID: 0}
  m_PrefabAsset: {fileID: 0}
  m_Name: WalkAnimation
  serializedVersion: 6
  m_Legacy: 0
  m_Compressed: 0
  m_UseHighQualityCurve: 1
  m_RotationCurves: []
  m_CompressedRotationCurves: []
  m_EulerCurves: []
  m_PositionCurves: []
  m_ScaleCurves: []
  m_FloatCurves: []
  m_PPtrCurves:
  - curve:
    - time: 0
      value: {fileID: 1857289333, guid: 8d58a35c1be9ef74da63d175d66657df, type: 3}
    - time: 0.1
      value: {fileID: -1746811224, guid: 8d58a35c1be9ef74da63d175d66657df, type: 3}
    - time: 0.18333334
      value: {fileID: -1259928032, guid: 8d58a35c1be9ef74da63d175d66657df, type: 3}
    - time: 0.28333333
      value: {fileID: -578259531, guid: 8d58a35c1be9ef74da63d175d66657df, type: 3}
    - time: 0.36666667
      value: {fileID: -353008753, guid: 8d58a35c1be9ef74da63d175d66657df, type: 3}
    - time: 0.46666667
      value: {fileID: 1668147800, guid: 8d58a35c1be9ef74da63d175d66657df, type: 3}
    - time: 0.55
      value: {fileID: 239022651, guid: 8d58a35c1be9ef74da63d175d66657df, type: 3}
    - time: 0.65
      value: {fileID: 1455682139, guid: 8d58a35c1be9ef74da63d175d66657df, type: 3}
    - time: 0.73333335
      value: {fileID: 1598171683, guid: 8d58a35c1be9ef74da63d175d66657df, type: 3}
    - time: 0.8333333
      value: {fileID: -590718619, guid: 8d58a35c1be9ef74da63d175d66657df, type: 3}
    attribute: m_Sprite
    path: 
    classID: 212
    script: {fileID: 0}
  m_SampleRate: 60
  m_WrapMode: 0
  m_Bounds:
    m_Center: {x: 0, y: 0, z: 0}
    m_Extent: {x: 0, y: 0, z: 0}
  m_ClipBindingConstant:
    genericBindings:
    - serializedVersion: 2
      path: 0
      attribute: 0
      script: {fileID: 0}
      typeID: 212
      customType: 23
      isPPtrCurve: 1
    pptrCurveMapping:
    - {fileID: 1857289333, guid: 8d58a35c1be9ef74da63d175d66657df, type: 3}
    - {fileID: -1746811224, guid: 8d58a35c1be9ef74da63d175d66657df, type: 3}
    - {fileID: -1259928032, guid: 8d58a35c1be9ef74da63d175d66657df, type: 3}
    - {fileID: -578259531, guid: 8d58a35c1be9ef74da63d175d66657df, type: 3}
    - {fileID: -353008753, guid: 8d58a35c1be9ef74da63d175d66657df, type: 3}
    - {fileID: 1668147800, guid: 8d58a35c1be9ef74da63d175d66657df, type: 3}
    - {fileID: 239022651, guid: 8d58a35c1be9ef74da63d175d66657df, type: 3}
    - {fileID: 1455682139, guid: 8d58a35c1be9ef74da63d175d66657df, type: 3}
    - {fileID: 1598171683, guid: 8d58a35c1be9ef74da63d175d66657df, type: 3}
    - {fileID: -590718619, guid: 8d58a35c1be9ef74da63d175d66657df, type: 3}
  m_AnimationClipSettings:
    serializedVersion: 2
    m_AdditiveReferencePoseClip: {fileID: 0}
    m_AdditiveReferencePoseTime: 0
    m_StartTime: 0
    m_StopTime: 0.84999996
    m_OrientationOffsetY: 0
    m_Level: 0
    m_CycleOffset: 0
    m_HasAdditiveReferencePose: 0
    m_LoopTime: 1
    m_LoopBlend: 0
    m_LoopBlendOrientation: 0
    m_LoopBlendPositionY: 0
    m_LoopBlendPositionXZ: 0
    m_KeepOriginalOrientation: 0
    m_KeepOriginalPositionY: 1
    m_KeepOriginalPositionXZ: 0
    m_HeightFromFeet: 0
    m_Mirror: 0
  m_EditorCurves: []
  m_EulerEditorCurves: []
  m_HasGenericRootTransform: 0
  m_HasMotionFloatCurves: 0
  m_Events: []
