%YAML 1.1
%TAG !u! tag:unity3d.com,2011:
--- !u!1045 &1
EditorBuildSettings:
  m_ObjectHideFlags: 0
  serializedVersion: 2
  m_Scenes:
  - enabled: 1
    path: Assets/Scenes/MainMenu.unity
    guid: 1b077bb27d13ce64ca2416e5efe03242
  - enabled: 1
    path: Assets/Scenes/Loading.unity
    guid: 8f9ee0e1ea96cc44b975d9a8d0b0a465
  - enabled: 1
    path: Assets/Scenes/TestLevel.unity
    guid: 8a9f4c55fb2660b4a84c6c2b578278b5
  - enabled: 1
    path: Assets/Scenes/EntryLevel.unity
    guid: dc06af6dd07b3f740b43704a659aa54f
  - enabled: 1
    path: Assets/Scenes/Level1.unity
    guid: c996102d25a89df42bf53dc30e5a8c74
  - enabled: 1
    path: Assets/Scenes/Level2.unity
    guid: eec29ea7227a04d43b4d791ed734eb1a
  - enabled: 1
    path: Assets/Scenes/EndScene.unity
    guid: 6acf46e8fdcc4d447ad85c138410f7a8
  m_configObjects: {}
